{
  "project_info": {
    "project_number": "369319242344",
    "firebase_url": "https://fitos-3806f.firebaseio.com",
    "project_id": "fitos-3806f",
    "storage_bucket": "fitos-3806f.appspot.com"
  },
  "client": [
    {
      "client_info": {
        "mobilesdk_app_id": "1:369319242344:android:6e073310536f4255",
        "android_client_info": {
          "package_name": "hr.ferit.ivamajic.fitos"
        }
      },
      "oauth_client": [
        {
          "client_id": "369319242344-5lnjspdmc6bctdkja1muamokb15hs9eh.apps.googleusercontent.com",
          "client_type": 3
        }
      ],
      "api_key": [
        {
          "current_key": "AIzaSyDXrWEOIAdLDoJzxOhj28P8lryXWpVbOOc"
        }
      ],
      "services": {
        "analytics_service": {
          "status": 1
        },
        "appinvite_service": {
          "status": 1,
          "other_platform_oauth_client": []
        },
        "ads_service": {
          "status": 2
        }
      }
    }
  ],
  "configuration_version": "1"
}